{
  "project_info": {
    "project_number": "894548695155",
    "firebase_url": "https://thinti-1043f.firebaseio.com",
    "project_id": "thinti-1043f",
    "storage_bucket": "thinti-1043f.appspot.com"
  },
  "client": [
    {
      "client_info": {
        "mobilesdk_app_id": "1:894548695155:android:8edb531dae977342",
        "android_client_info": {
          "package_name": "com.thinti.thin"
        }
      },
      "oauth_client": [
        {
          "client_id": "894548695155-as8s3aift46bp630mmbg78vercrnhvhk.apps.googleusercontent.com",
          "client_type": 3
        }
      ],
      "api_key": [
        {
          "current_key": "AIzaSyDixWwgjnNKv67adRuHqYKIXvfhsX_8r_g"
        }
      ],
      "services": {
        "analytics_service": {
          "status": 1
        },
        "appinvite_service": {
          "status": 1,
          "other_platform_oauth_client": []
        },
        "ads_service": {
          "status": 2
        }
      }
    }
  ],
  "configuration_version": "1"
}